{
  "text": "Release ${RELEASE_NAME}",
  "blocks": [
    {
      "type": "header",
      "text": {
        "type": "plain_text",
        "text": ":ship: Release ${RELEASE_NAME}",
        "emoji": true
      }
    },
    {
      "type": "context",
      "elements": [
        {
          "type": "plain_text",
          "text": "Created by: ${GITLAB_USER_NAME}",
          "emoji": true
        }
      ]
    },
    {
      "type": "section",
      "text": {
        "type": "mrkdwn",
        "text": "<${RELEASE_URL}|View release details>"
      }
    }
  ]
}
